/* XPM */
static char * hide_pressed_xpm[] = {
"14 27 5 1",
" 	c None",
".	c #D59E01",
"+	c #E9B500",
"@	c #FCCC00",
"#	c #F0FF0A",
"              ",
"              ",
"              ",
"              ",
"              ",
"              ",
"@@@@@@@@@@@@@@",
"@@@@@@@@@@@@@@",
"@@@@@@@@@@@@@@",
"@@@@@@@@@@@@@@",
"..............",
"............##",
"..++++++@@#@##",
".#############",
".#############",
"@@@@@@@@@@@@@@",
"@@@@@@@@@@@@@@",
"@@@@@@@@@@@@@@",
"@@@@@@@@@@@@@@",
"@@@@@@@@@@@@@@",
"              ",
"              ",
"              ",
"              ",
"              ",
"              ",
"              "};
