/* XPM */
static char * title_4_active_xpm[] = {
"16 23 10 1",
" 	c None",
".	c #989898",
"+	c #F1FF3F",
"@	c #FFFF50",
"#	c #606060",
"$	c #FCCB00",
"%	c #AF7B00",
"&	c #D8D8D8",
"*	c #FFFFFF",
"=	c #888888",
"................",
"++++++++++++++@#",
"$$$$$$$$$$$$$$%#",
"$$$$$$$$$$$$$$%#",
"$$$$$$$$$$$$$$%#",
"$$$$$$$$$$$$$$%#",
"$$$$$$$$$$$$$$%#",
"$$$$$$$$$$$$$$%#",
"$$$$$$$$$$$$$$%#",
"$$$$$$$$$$$$$$%#",
"$$$$$$$$$$$$$$%#",
"$$$$$$$$$$$$$$%#",
"$$$$$$$$$$$$$$%#",
"$$$$$$$$$$$$$$%#",
"$$$$$$$$$$$$$$%#",
"$$$$$$$$$$$$$$%#",
"$$$$$$$$$$$$$$%#",
"$$$$$$$$$$$$$$%#",
"$$$$$$$$$$$$$$%#",
"$$$$$$$$$$$$$$%#",
"&&&&&&&&&&&&&&**",
"&&&&&&&&&&&&&&&&",
"================"};
